Django==3.2.13
django-environ==0.8.1
psycopg2==2.9.3
djangorestframework==3.13.1

celery==5.2.6
django-celery-results==2.3.1
django-celery-beat==2.2.1

whitenoise==6.1.0

django-filter==21.1
django-extensions==3.1.5
django-cors-headers==3.12.0
django-storages==1.12.3

drf-jwt==1.19.2

boto3==1.23.0
attrs==21.4.0

django-jazzmin
graphql-core
graphql-relay
graphene-django
django-graphql-jwt
django-graphql-auth

# correct packages installed
# graphql-core==3.1.0, ->3.2.3
# graphql-relay==2.0.1 -> 3.2.0
# graphene-django==3.0.0
# django-graphql-jwt==0.3.0 -> 0.3.4
# django-graphql-auth==0.3.16 -> 0.3.7

django-jazzmin
drf-yasg
PyYAML==6.0
